// Jest Snapshot v1, https://goo.gl/fbAQLP

exports[`Ranking default render 1`] = `
<DocumentFragment>
  .emotion-12 {
  display: -webkit-box;
  display: -webkit-flex;
  display: -ms-flexbox;
  display: flex;
  -webkit-flex-direction: column;
  -ms-flex-direction: column;
  flex-direction: column;
  -webkit-align-items: center;
  -webkit-box-align: center;
  -ms-flex-align: center;
  align-items: center;
}

.emotion-3 {
  display: -webkit-box;
  display: -webkit-flex;
  display: -ms-flexbox;
  display: flex;
  -webkit-flex-direction: column;
  -ms-flex-direction: column;
  flex-direction: column;
  max-width: 200px;
  width: 100%;
  overflow: hidden;
  margin: 0.5rem 0;
  background-color: #eff3f5;
  border-radius: 4px;
  border: 2px solid transparent;
}

@media (min-width:600px) {
  .emotion-3 {
    max-width: 275px;
  }
}

@media (min-width:800px) {
  .emotion-3 {
    max-width: 345px;
  }
}

.emotion-3:hover,
.emotion-3:focus {
  border-color: #00b894;
}

.emotion-0 {
  display: -webkit-box;
  display: -webkit-flex;
  display: -ms-flexbox;
  display: flex;
  padding: 1rem;
  -webkit-align-items: center;
  -webkit-box-align: center;
  -ms-flex-align: center;
  align-items: center;
  -webkit-box-pack: justify;
  -webkit-justify-content: space-between;
  -ms-flex-pack: justify;
  justify-content: space-between;
  font-size: 0.9rem;
  font-weight: 700;
}

.emotion-0 span {
  line-height: 1.1rem;
}

.emotion-0 span:last-child {
  font-size: 1.1rem;
  color: #00b894;
}

.emotion-1 {
  height: 0;
  padding-top: 56.25%;
  display: block;
  background-size: cover;
  background-repeat: no-repeat;
  background-position: center;
  background-image: url(http://25.media.tumblr.com/tumblr_m1mls6SBfO1qze0hyo1_1280.jpg);
}

.emotion-2 {
  padding: 1rem;
}

.emotion-2 > div {
  line-height: 1.3rem;
}

.emotion-2 > div > span {
  font-size: 0.85rem;
  font-weight: 500;
}

.emotion-2 > div > span:last-child {
  margin-left: 0.3rem;
  color: #00b894;
}

.emotion-5 {
  height: 0;
  padding-top: 56.25%;
  display: block;
  background-size: cover;
  background-repeat: no-repeat;
  background-position: center;
  background-image: url(http://24.media.tumblr.com/tumblr_lg1hnknXjm1qfyzelo1_1280.jpg);
}

.emotion-9 {
  height: 0;
  padding-top: 56.25%;
  display: block;
  background-size: cover;
  background-repeat: no-repeat;
  background-position: center;
  background-image: url(http://25.media.tumblr.com/tumblr_m4pwa9EXE41r6jd7fo1_500.jpg);
}

<div
    class="emotion-13"
    data-testid="ranking"
  >
    <div
      class="emotion-12"
    >
      <div
        class="emotion-3"
        data-testid="ranking-list-item-ck66wxavq060s0729mltobvru"
      >
        <div
          class="emotion-0"
        >
          <span>
            Rank:
          </span>
          <span>
            1546
          </span>
        </div>
        <div
          class="emotion-1"
        />
        <div
          class="emotion-2"
        >
          <div>
            <span>
              Score:
            </span>
            <span>
              1546.56
            </span>
          </div>
          <div>
            <span>
              Wins:
            </span>
            <span>
              3
            </span>
          </div>
          <div>
            <span>
              Losses:
            </span>
            <span>
              0
            </span>
          </div>
        </div>
      </div>
      <div
        class="emotion-3"
        data-testid="ranking-list-item-ck66wxaw4061s0729ojaovma3"
      >
        <div
          class="emotion-0"
        >
          <span>
            Rank:
          </span>
          <span>
            1546
          </span>
        </div>
        <div
          class="emotion-5"
        />
        <div
          class="emotion-2"
        >
          <div>
            <span>
              Score:
            </span>
            <span>
              1545.8272
            </span>
          </div>
          <div>
            <span>
              Wins:
            </span>
            <span>
              3
            </span>
          </div>
          <div>
            <span>
              Losses:
            </span>
            <span>
              0
            </span>
          </div>
        </div>
      </div>
      <div
        class="emotion-3"
        data-testid="ranking-list-item-ck66wxawa062a0729o94g52y7"
      >
        <div
          class="emotion-0"
        >
          <span>
            Rank:
          </span>
          <span>
            1545
          </span>
        </div>
        <div
          class="emotion-9"
        />
        <div
          class="emotion-2"
        >
          <div>
            <span>
              Score:
            </span>
            <span>
              1545.1296
            </span>
          </div>
          <div>
            <span>
              Wins:
            </span>
            <span>
              3
            </span>
          </div>
          <div>
            <span>
              Losses:
            </span>
            <span>
              0
            </span>
          </div>
        </div>
      </div>
    </div>
  </div>
</DocumentFragment>
`;
